      _                  _    __                                            _                    _
      / \                (_)  [  |                                          (_)                  / |_
     / _ \       .--./)  __    | |   .---.   _ .--.    _ .--.    .--.       __   .---.   .---.  `| |-'
    / ___ \     / /'`\; [  |   | |  / /__\\ [ '/'`\ \ [ `/'`\] / .'`\ \    [  | / /__\\ / /'`\]  | |
  _/ /   \ \_   \ \._//  | |   | |  | \__.,  | \__/ |  | |     | \__. |  _  | | | \__., | \__.   | |,
 |____| |____|  .',__`  [___] [___]  '.__.'  | ;.__/  [___]     '.__.'  [ \_| |  '.__.' '.___.'  \__/
               ( ( __))                     [__|                         \____/

